###############################################################################
#                                                                             #
#     IAR Assembler V8.22.1.15669/W32 for ARM 25/Mar/2018  22:56:10           #
#     Copyright 1999-2018 IAR Systems AB.                                     #
#                                                                             #
#           Source file   =  C:\Users\kenji\Documents\EBIKE\ebike\FreeRTOSv10.0.1\FreeRTOS\Demo\CORTEX_M7_STM32F7_STM32756G-EVAL_IAR_Keil\Full_Demo\RegTest_IAR.s#
#           List file     =  C:\Users\kenji\Documents\EBIKE\ebike\FreeRTOSv10.0.1\FreeRTOS\Demo\CORTEX_M7_STM32F7_STM32756G-EVAL_IAR_Keil\Debug\List\RegTest_IAR.lst#
#           Object file   =  C:\Users\kenji\Documents\EBIKE\ebike\FreeRTOSv10.0.1\FreeRTOS\Demo\CORTEX_M7_STM32F7_STM32756G-EVAL_IAR_Keil\Debug\Obj\RegTest_IAR.o#
#           Command line  =  -f C:\Users\kenji\AppData\Local\Temp\EW2380.tmp  #
#                            (C:\Users\kenji\Documents\EBIKE\ebike\FreeRTOSv10.0.1\FreeRTOS\Demo\CORTEX_M7_STM32F7_STM32756G-EVAL_IAR_Keil\Full_Demo\RegTest_IAR.s #
#                            -OC:\Users\kenji\Documents\EBIKE\ebike\FreeRTOSv10.0.1\FreeRTOS\Demo\CORTEX_M7_STM32F7_STM32756G-EVAL_IAR_Keil\Debug\Obj #
#                            -s+ -M<> -w+ -r                                  #
#                            -LC:\Users\kenji\Documents\EBIKE\ebike\FreeRTOSv10.0.1\FreeRTOS\Demo\CORTEX_M7_STM32F7_STM32756G-EVAL_IAR_Keil\Debug\List #
#                            -t8 --cpu Cortex-M7 --fpu VFPv5_sp               #
#                            -IC:\Users\kenji\Documents\EBIKE\ebike\FreeRTOSv10.0.1\FreeRTOS\Demo\CORTEX_M7_STM32F7_STM32756G-EVAL_IAR_Keil\) #
#                                                                             #
###############################################################################

    1                           /*
    2                            * FreeRTOS Kernel V10.0.1
    3                            * Copyright (C) 2017 Amazon.com, Inc. or its
                                 affiliates.  All Rights Reserved.
    4                            *
    5                            * Permission is hereby granted, free of
                                 charge, to any person obtaining a copy
                                 of
    6                            * this software and associated documentation
                                 files (the "Software"), to deal in
    7                            * the Software without restriction, including
                                 without limitation the rights to
    8                            * use, copy, modify, merge, publish,
                                 distribute, sublicense, and/or sell copies
                                 of
    9                            * the Software, and to permit persons to whom
                                 the Software is furnished to do so,
   10                            * subject to the following conditions:
   11                            *
   12                            * The above copyright notice and this
                                 permission notice shall be included in
                                 all
   13                            * copies or substantial portions of the
                                 Software.
   14                            *
   15                            * THE SOFTWARE IS PROVIDED "AS IS", WITHOUT
                                 WARRANTY OF ANY KIND, EXPRESS OR
   16                            * IMPLIED, INCLUDING BUT NOT LIMITED TO THE
                                 WARRANTIES OF MERCHANTABILITY, FITNESS
   17                            * FOR A PARTICULAR PURPOSE AND NONINFRINGEMEN
                                T. IN NO EVENT SHALL THE AUTHORS OR
   18                            * COPYRIGHT HOLDERS BE LIABLE FOR ANY CLAIM,
                                 DAMAGES OR OTHER LIABILITY, WHETHER
   19                            * IN AN ACTION OF CONTRACT, TORT OR
                                 OTHERWISE, ARISING FROM, OUT OF OR IN
   20                            * CONNECTION WITH THE SOFTWARE OR THE USE OR
                                 OTHER DEALINGS IN THE SOFTWARE.
   21                            *
   22                            * http://www.FreeRTOS.org
   23                            * http://aws.amazon.com/freertos
   24                            *
   25                            * 1 tab == 4 spaces!
   26                            */
   27                           
   28                           #include <FreeRTOSConfig.h>
   29                           
   30                           
   31                                   RSEG    CODE:CODE(2)
   32                                   thumb
   33                           
   34                                   EXTERN ulRegTest1LoopCounter
   35                                   EXTERN ulRegTest2LoopCounter
   36                           
   37                                   PUBLIC vRegTest1Implementation
   38                                   PUBLIC vRegTest2Implementation
   39                                   PUBLIC vRegTestClearFlopRegistersToPar
                                ameterValue
   40                                   PUBLIC ulRegTestCheckFlopRegistersCont
                                ainParameterValue
   41                           
   42                           /*--------------------------------------------
                                ---------------*/
   43                           
   44                           vRegTest1Implementation
   45                           
   46                                   /* Fill the core registers with known
                                 values. */
   47    00000000 4FF06400              mov r0, #100
   48    00000004 4FF06501              mov r1, #101
   49    00000008 4FF06602              mov r2, #102
   50    0000000C 4FF06703              mov r3, #103
   51    00000010 4FF06804              mov     r4, #104
   52    00000014 4FF06905              mov     r5, #105
   53    00000018 4FF06A06              mov     r6, #106
   54    0000001C 4FF06B07              mov r7, #107
   55    00000020 4FF06C08              mov     r8, #108
   56    00000024 4FF06D09              mov     r9, #109
   57    00000028 4FF06E0A              mov     r10, #110
   58    0000002C 4FF06F0B              mov     r11, #111
   59    00000030 4FF0700C              mov r12, #112
   60                           
   61                                   /* Fill the VFP registers with known
                                 values. */
   62    00000034 41EC100B              vmov d0, r0, r1
   63    00000038 43EC112B              vmov d1, r2, r3
   64    0000003C 45EC124B              vmov d2, r4, r5
   65    00000040 47EC136B              vmov d3, r6, r7
   66    00000044 49EC148B              vmov d4, r8, r9
   67    00000048 4BEC15AB              vmov d5, r10, r11
   68    0000004C 41EC160B              vmov d6, r0, r1
   69    00000050 43EC172B              vmov d7, r2, r3
   70    00000054 45EC184B              vmov d8, r4, r5
   71    00000058 47EC196B              vmov d9, r6, r7
   72    0000005C 49EC1A8B              vmov d10, r8, r9
   73    00000060 4BEC1BAB              vmov d11, r10, r11
   74    00000064 41EC1C0B              vmov d12, r0, r1
   75    00000068 43EC1D2B              vmov d13, r2, r3
   76    0000006C 45EC1E4B              vmov d14, r4, r5
   77    00000070 47EC1F6B              vmov d15, r6, r7
   78                           
   79                           reg1_loop:
   80                                   /* Check all the VFP registers still
                                 contain the values set above.
   81                                   First save registers that are
                                 clobbered by the test. */
   82    00000074 03B4                  push { r0-r1 }
   83                           
   84    00000076 51EC100B              vmov r0, r1, d0
   85    0000007A 6428                  cmp r0, #100
   86    0000007C 5DD1                  bne reg1_error_loopf
   87    0000007E 6529                  cmp r1, #101
   88    00000080 5BD1                  bne reg1_error_loopf
   89    00000082 51EC110B              vmov r0, r1, d1
   90    00000086 6628                  cmp r0, #102
   91    00000088 57D1                  bne reg1_error_loopf
   92    0000008A 6729                  cmp r1, #103
   93    0000008C 55D1                  bne reg1_error_loopf
   94    0000008E 51EC120B              vmov r0, r1, d2
   95    00000092 6828                  cmp r0, #104
   96    00000094 51D1                  bne reg1_error_loopf
   97    00000096 6929                  cmp r1, #105
   98    00000098 4FD1                  bne reg1_error_loopf
   99    0000009A 51EC130B              vmov r0, r1, d3
  100    0000009E 6A28                  cmp r0, #106
  101    000000A0 4BD1                  bne reg1_error_loopf
  102    000000A2 6B29                  cmp r1, #107
  103    000000A4 49D1                  bne reg1_error_loopf
  104    000000A6 51EC140B              vmov r0, r1, d4
  105    000000AA 6C28                  cmp r0, #108
  106    000000AC 45D1                  bne reg1_error_loopf
  107    000000AE 6D29                  cmp r1, #109
  108    000000B0 43D1                  bne reg1_error_loopf
  109    000000B2 51EC150B              vmov r0, r1, d5
  110    000000B6 6E28                  cmp r0, #110
  111    000000B8 3FD1                  bne reg1_error_loopf
  112    000000BA 6F29                  cmp r1, #111
  113    000000BC 3DD1                  bne reg1_error_loopf
  114    000000BE 51EC160B              vmov r0, r1, d6
  115    000000C2 6428                  cmp r0, #100
  116    000000C4 39D1                  bne reg1_error_loopf
  117    000000C6 6529                  cmp r1, #101
  118    000000C8 37D1                  bne reg1_error_loopf
  119    000000CA 51EC170B              vmov r0, r1, d7
  120    000000CE 6628                  cmp r0, #102
  121    000000D0 33D1                  bne reg1_error_loopf
  122    000000D2 6729                  cmp r1, #103
  123    000000D4 31D1                  bne reg1_error_loopf
  124    000000D6 51EC180B              vmov r0, r1, d8
  125    000000DA 6828                  cmp r0, #104
  126    000000DC 2DD1                  bne reg1_error_loopf
  127    000000DE 6929                  cmp r1, #105
  128    000000E0 2BD1                  bne reg1_error_loopf
  129    000000E2 51EC190B              vmov r0, r1, d9
  130    000000E6 6A28                  cmp r0, #106
  131    000000E8 27D1                  bne reg1_error_loopf
  132    000000EA 6B29                  cmp r1, #107
  133    000000EC 25D1                  bne reg1_error_loopf
  134    000000EE 51EC1A0B              vmov r0, r1, d10
  135    000000F2 6C28                  cmp r0, #108
  136    000000F4 21D1                  bne reg1_error_loopf
  137    000000F6 6D29                  cmp r1, #109
  138    000000F8 1FD1                  bne reg1_error_loopf
  139    000000FA 51EC1B0B              vmov r0, r1, d11
  140    000000FE 6E28                  cmp r0, #110
  141    00000100 1BD1                  bne reg1_error_loopf
  142    00000102 6F29                  cmp r1, #111
  143    00000104 19D1                  bne reg1_error_loopf
  144    00000106 51EC1C0B              vmov r0, r1, d12
  145    0000010A 6428                  cmp r0, #100
  146    0000010C 15D1                  bne reg1_error_loopf
  147    0000010E 6529                  cmp r1, #101
  148    00000110 13D1                  bne reg1_error_loopf
  149    00000112 51EC1D0B              vmov r0, r1, d13
  150    00000116 6628                  cmp r0, #102
  151    00000118 0FD1                  bne reg1_error_loopf
  152    0000011A 6729                  cmp r1, #103
  153    0000011C 0DD1                  bne reg1_error_loopf
  154    0000011E 51EC1E0B              vmov r0, r1, d14
  155    00000122 6828                  cmp r0, #104
  156    00000124 09D1                  bne reg1_error_loopf
  157    00000126 6929                  cmp r1, #105
  158    00000128 07D1                  bne reg1_error_loopf
  159    0000012A 51EC1F0B              vmov r0, r1, d15
  160    0000012E 6A28                  cmp r0, #106
  161    00000130 03D1                  bne reg1_error_loopf
  162    00000132 6B29                  cmp r1, #107
  163    00000134 01D1                  bne reg1_error_loopf
  164                           
  165                                   /* Restore the registers that were
                                 clobbered by the test. */
  166    00000136 03BC                  pop {r0-r1}
  167                           
  168                                   /* VFP register test passed.  Jump to
                                 the core register test. */
  169    00000138 00E0                  b reg1_loopf_pass
  170                           
  171                           reg1_error_loopf
  172                                   /* If this line is hit then a VFP
                                 register value was found to be
  173                                   incorrect. */
  174    0000013A FEE7                  b reg1_error_loopf
  175                           
  176                           reg1_loopf_pass
  177                           
  178    0000013C 6428                  cmp     r0, #100
  179    0000013E 23D1                  bne     reg1_error_loop
  180    00000140 6529                  cmp     r1, #101
  181    00000142 21D1                  bne     reg1_error_loop
  182    00000144 662A                  cmp     r2, #102
  183    00000146 1FD1                  bne     reg1_error_loop
  184    00000148 672B                  cmp r3, #103
  185    0000014A 1DD1                  bne     reg1_error_loop
  186    0000014C 682C                  cmp     r4, #104
  187    0000014E 1BD1                  bne     reg1_error_loop
  188    00000150 692D                  cmp     r5, #105
  189    00000152 19D1                  bne     reg1_error_loop
  190    00000154 6A2E                  cmp     r6, #106
  191    00000156 17D1                  bne     reg1_error_loop
  192    00000158 6B2F                  cmp     r7, #107
  193    0000015A 15D1                  bne     reg1_error_loop
  194    0000015C B8F16C0F              cmp     r8, #108
  195    00000160 12D1                  bne     reg1_error_loop
  196    00000162 B9F16D0F              cmp     r9, #109
  197    00000166 0FD1                  bne     reg1_error_loop
  198    00000168 BAF16E0F              cmp     r10, #110
  199    0000016C 0CD1                  bne     reg1_error_loop
  200    0000016E BBF16F0F              cmp     r11, #111
  201    00000172 09D1                  bne     reg1_error_loop
  202    00000174 BCF1700F              cmp     r12, #112
  203    00000178 06D1                  bne     reg1_error_loop
  204                           
  205                                   /* Everything passed, increment the
                                 loop counter. */
  206    0000017A 03B4                  push { r0-r1 }
  207    0000017C 9648                  ldr     r0, =ulRegTest1LoopCounter
  208    0000017E 0168                  ldr r1, [r0]
  209    00000180 491C                  adds r1, r1, #1
  210    00000182 0160                  str r1, [r0]
  211    00000184 03BC                  pop { r0-r1 }
  212                           
  213                                   /* Start again. */
  214    00000186 75E7                  b reg1_loop
  215                           
  216                           reg1_error_loop:
  217                                   /* If this line is hit then there was
                                 an error in a core register value.
  218                                   The loop ensures the loop counter
                                 stops incrementing. */
  219    00000188 FEE7                  b reg1_error_loop
  220                           
  221                           /*--------------------------------------------
                                ---------------*/
  222                           
  223                           
  224                           vRegTest2Implementation
  225                           
  226                                   /* Set all the core registers to known
                                 values. */
  227    0000018A 4FF0FF30              mov r0, #-1
  228    0000018E 4FF00101              mov r1, #1
  229    00000192 4FF00202              mov r2, #2
  230    00000196 4FF00303              mov r3, #3
  231    0000019A 4FF00404              mov     r4, #4
  232    0000019E 4FF00505              mov     r5, #5
  233    000001A2 4FF00606              mov     r6, #6
  234    000001A6 4FF00707              mov r7, #7
  235    000001AA 4FF00808              mov     r8, #8
  236    000001AE 4FF00909              mov     r9, #9
  237    000001B2 4FF00A0A              mov     r10, #10
  238    000001B6 4FF00B0B              mov     r11, #11
  239    000001BA 4FF00C0C              mov r12, #12
  240                           
  241                                   /* Set all the VFP to known values.
                                 */
  242    000001BE 41EC100B              vmov d0, r0, r1
  243    000001C2 43EC112B              vmov d1, r2, r3
  244    000001C6 45EC124B              vmov d2, r4, r5
  245    000001CA 47EC136B              vmov d3, r6, r7
  246    000001CE 49EC148B              vmov d4, r8, r9
  247    000001D2 4BEC15AB              vmov d5, r10, r11
  248    000001D6 41EC160B              vmov d6, r0, r1
  249    000001DA 43EC172B              vmov d7, r2, r3
  250    000001DE 45EC184B              vmov d8, r4, r5
  251    000001E2 47EC196B              vmov d9, r6, r7
  252    000001E6 49EC1A8B              vmov d10, r8, r9
  253    000001EA 4BEC1BAB              vmov d11, r10, r11
  254    000001EE 41EC1C0B              vmov d12, r0, r1
  255    000001F2 43EC1D2B              vmov d13, r2, r3
  256    000001F6 45EC1E4B              vmov d14, r4, r5
  257    000001FA 47EC1F6B              vmov d15, r6, r7
  258                           
  259                           reg2_loop:
  260                           
  261                                   /* Check all the VFP registers still
                                 contain the values set above.
  262                                   First save registers that are
                                 clobbered by the test. */
  263    000001FE 03B4                  push { r0-r1 }
  264                           
  265    00000200 51EC100B              vmov r0, r1, d0
  266    00000204 B0F1FF3F              cmp r0, #-1
  267    00000208 5FD1                  bne reg2_error_loopf
  268    0000020A 0129                  cmp r1, #1
  269    0000020C 5DD1                  bne reg2_error_loopf
  270    0000020E 51EC110B              vmov r0, r1, d1
  271    00000212 0228                  cmp r0, #2
  272    00000214 59D1                  bne reg2_error_loopf
  273    00000216 0329                  cmp r1, #3
  274    00000218 57D1                  bne reg2_error_loopf
  275    0000021A 51EC120B              vmov r0, r1, d2
  276    0000021E 0428                  cmp r0, #4
  277    00000220 53D1                  bne reg2_error_loopf
  278    00000222 0529                  cmp r1, #5
  279    00000224 51D1                  bne reg2_error_loopf
  280    00000226 51EC130B              vmov r0, r1, d3
  281    0000022A 0628                  cmp r0, #6
  282    0000022C 4DD1                  bne reg2_error_loopf
  283    0000022E 0729                  cmp r1, #7
  284    00000230 4BD1                  bne reg2_error_loopf
  285    00000232 51EC140B              vmov r0, r1, d4
  286    00000236 0828                  cmp r0, #8
  287    00000238 47D1                  bne reg2_error_loopf
  288    0000023A 0929                  cmp r1, #9
  289    0000023C 45D1                  bne reg2_error_loopf
  290    0000023E 51EC150B              vmov r0, r1, d5
  291    00000242 0A28                  cmp r0, #10
  292    00000244 41D1                  bne reg2_error_loopf
  293    00000246 0B29                  cmp r1, #11
  294    00000248 3FD1                  bne reg2_error_loopf
  295    0000024A 51EC160B              vmov r0, r1, d6
  296    0000024E B0F1FF3F              cmp r0, #-1
  297    00000252 3AD1                  bne reg2_error_loopf
  298    00000254 0129                  cmp r1, #1
  299    00000256 38D1                  bne reg2_error_loopf
  300    00000258 51EC170B              vmov r0, r1, d7
  301    0000025C 0228                  cmp r0, #2
  302    0000025E 34D1                  bne reg2_error_loopf
  303    00000260 0329                  cmp r1, #3
  304    00000262 32D1                  bne reg2_error_loopf
  305    00000264 51EC180B              vmov r0, r1, d8
  306    00000268 0428                  cmp r0, #4
  307    0000026A 2ED1                  bne reg2_error_loopf
  308    0000026C 0529                  cmp r1, #5
  309    0000026E 2CD1                  bne reg2_error_loopf
  310    00000270 51EC190B              vmov r0, r1, d9
  311    00000274 0628                  cmp r0, #6
  312    00000276 28D1                  bne reg2_error_loopf
  313    00000278 0729                  cmp r1, #7
  314    0000027A 26D1                  bne reg2_error_loopf
  315    0000027C 51EC1A0B              vmov r0, r1, d10
  316    00000280 0828                  cmp r0, #8
  317    00000282 22D1                  bne reg2_error_loopf
  318    00000284 0929                  cmp r1, #9
  319    00000286 20D1                  bne reg2_error_loopf
  320    00000288 51EC1B0B              vmov r0, r1, d11
  321    0000028C 0A28                  cmp r0, #10
  322    0000028E 1CD1                  bne reg2_error_loopf
  323    00000290 0B29                  cmp r1, #11
  324    00000292 1AD1                  bne reg2_error_loopf
  325    00000294 51EC1C0B              vmov r0, r1, d12
  326    00000298 B0F1FF3F              cmp r0, #-1
  327    0000029C 15D1                  bne reg2_error_loopf
  328    0000029E 0129                  cmp r1, #1
  329    000002A0 13D1                  bne reg2_error_loopf
  330    000002A2 51EC1D0B              vmov r0, r1, d13
  331    000002A6 0228                  cmp r0, #2
  332    000002A8 0FD1                  bne reg2_error_loopf
  333    000002AA 0329                  cmp r1, #3
  334    000002AC 0DD1                  bne reg2_error_loopf
  335    000002AE 51EC1E0B              vmov r0, r1, d14
  336    000002B2 0428                  cmp r0, #4
  337    000002B4 09D1                  bne reg2_error_loopf
  338    000002B6 0529                  cmp r1, #5
  339    000002B8 07D1                  bne reg2_error_loopf
  340    000002BA 51EC1F0B              vmov r0, r1, d15
  341    000002BE 0628                  cmp r0, #6
  342    000002C0 03D1                  bne reg2_error_loopf
  343    000002C2 0729                  cmp r1, #7
  344    000002C4 01D1                  bne reg2_error_loopf
  345                           
  346                                   /* Restore the registers that were
                                 clobbered by the test. */
  347    000002C6 03BC                  pop {r0-r1}
  348                           
  349                                   /* VFP register test passed.  Jump to
                                 the core register test. */
  350    000002C8 00E0                  b reg2_loopf_pass
  351                           
  352                           reg2_error_loopf
  353                                   /* If this line is hit then a VFP
                                 register value was found to be
  354                                   incorrect. */
  355    000002CA FEE7                  b reg2_error_loopf
  356                           
  357                           reg2_loopf_pass
  358                           
  359    000002CC B0F1FF3F              cmp     r0, #-1
  360    000002D0 2AD1                  bne     reg2_error_loop
  361    000002D2 0129                  cmp     r1, #1
  362    000002D4 28D1                  bne     reg2_error_loop
  363    000002D6 022A                  cmp     r2, #2
  364    000002D8 26D1                  bne     reg2_error_loop
  365    000002DA 032B                  cmp r3, #3
  366    000002DC 24D1                  bne     reg2_error_loop
  367    000002DE 042C                  cmp     r4, #4
  368    000002E0 22D1                  bne     reg2_error_loop
  369    000002E2 052D                  cmp     r5, #5
  370    000002E4 20D1                  bne     reg2_error_loop
  371    000002E6 062E                  cmp     r6, #6
  372    000002E8 1ED1                  bne     reg2_error_loop
  373    000002EA 072F                  cmp     r7, #7
  374    000002EC 1CD1                  bne     reg2_error_loop
  375    000002EE B8F1080F              cmp     r8, #8
  376    000002F2 19D1                  bne     reg2_error_loop
  377    000002F4 B9F1090F              cmp     r9, #9
  378    000002F8 16D1                  bne     reg2_error_loop
  379    000002FA BAF10A0F              cmp     r10, #10
  380    000002FE 13D1                  bne     reg2_error_loop
  381    00000300 BBF10B0F              cmp     r11, #11
  382    00000304 10D1                  bne     reg2_error_loop
  383    00000306 BCF10C0F              cmp     r12, #12
  384    0000030A 0DD1                  bne     reg2_error_loop
  385                           
  386                                   /* Increment the loop counter to
                                 indicate this test is still functioning
  387                                   correctly. */
  388    0000030C 03B4                  push { r0-r1 }
  389    0000030E 3348                  ldr     r0, =ulRegTest2LoopCounter
  390    00000310 0168                  ldr r1, [r0]
  391    00000312 491C                  adds r1, r1, #1
  392    00000314 0160                  str r1, [r0]
  393                           
  394                                   /* Yield to increase test coverage.
                                 */
  395    00000316 0120                  movs r0, #0x01
  396    00000318 3149                  ldr r1, =0xe000ed04 /*NVIC_INT_CTRL
                                             */
  397    0000031A 4FEA0070              lsl r0, r0, #28 /* Shift to PendSV bit
                                             */
  398    0000031E 0860                  str r0, [r1]
  399    00000320 BFF34F8F              dsb
  400                           
  401    00000324 03BC                  pop { r0-r1 }
  402                           
  403                                   /* Start again. */
  404    00000326 6AE7                  b reg2_loop
  405                           
  406                           reg2_error_loop:
  407                                   /* If this line is hit then there was
                                 an error in a core register value.
  408                                   This loop ensures the loop counter
                                 variable stops incrementing. */
  409    00000328 FEE7                  b reg2_error_loop
  410                           
  411                           /*--------------------------------------------
                                ---------------*/
  412                           
  413                           vRegTestClearFlopRegistersToParameterValue
  414                           
  415                                   /* Clobber the auto saved registers.
                                 */
  416    0000032A 40EC100B              vmov d0, r0, r0
  417    0000032E 40EC110B              vmov d1, r0, r0
  418    00000332 40EC120B              vmov d2, r0, r0
  419    00000336 40EC130B              vmov d3, r0, r0
  420    0000033A 40EC140B              vmov d4, r0, r0
  421    0000033E 40EC150B              vmov d5, r0, r0
  422    00000342 40EC160B              vmov d6, r0, r0
  423    00000346 40EC170B              vmov d7, r0, r0
  424    0000034A 7047                  bx lr
  425                           
  426                           /*--------------------------------------------
                                ---------------*/
  427                           
  428                           ulRegTestCheckFlopRegistersContainParameterVal
                                ue
  429                           
  430    0000034C 10EE101A              vmov r1, s0
  431    00000350 8842                  cmp r0, r1
  432    00000352 3ED1                  bne return_error
  433    00000354 10EE901A              vmov r1, s1
  434    00000358 8842                  cmp r0, r1
  435    0000035A 3AD1                  bne return_error
  436    0000035C 11EE101A              vmov r1, s2
  437    00000360 8842                  cmp r0, r1
  438    00000362 36D1                  bne return_error
  439    00000364 11EE901A              vmov r1, s3
  440    00000368 8842                  cmp r0, r1
  441    0000036A 32D1                  bne return_error
  442    0000036C 12EE101A              vmov r1, s4
  443    00000370 8842                  cmp r0, r1
  444    00000372 2ED1                  bne return_error
  445    00000374 12EE901A              vmov r1, s5
  446    00000378 8842                  cmp r0, r1
  447    0000037A 2AD1                  bne return_error
  448    0000037C 13EE101A              vmov r1, s6
  449    00000380 8842                  cmp r0, r1
  450    00000382 26D1                  bne return_error
  451    00000384 13EE901A              vmov r1, s7
  452    00000388 8842                  cmp r0, r1
  453    0000038A 22D1                  bne return_error
  454    0000038C 14EE101A              vmov r1, s8
  455    00000390 8842                  cmp r0, r1
  456    00000392 1ED1                  bne return_error
  457    00000394 14EE901A              vmov r1, s9
  458    00000398 8842                  cmp r0, r1
  459    0000039A 1AD1                  bne return_error
  460    0000039C 15EE101A              vmov r1, s10
  461    000003A0 8842                  cmp r0, r1
  462    000003A2 16D1                  bne return_error
  463    000003A4 15EE901A              vmov r1, s11
  464    000003A8 8842                  cmp r0, r1
  465    000003AA 12D1                  bne return_error
  466    000003AC 16EE101A              vmov r1, s12
  467    000003B0 8842                  cmp r0, r1
  468    000003B2 0ED1                  bne return_error
  469    000003B4 16EE901A              vmov r1, s13
  470    000003B8 8842                  cmp r0, r1
  471    000003BA 0AD1                  bne return_error
  472    000003BC 17EE101A              vmov r1, s14
  473    000003C0 8842                  cmp r0, r1
  474    000003C2 06D1                  bne return_error
  475    000003C4 17EE901A              vmov r1, s15
  476    000003C8 8842                  cmp r0, r1
  477    000003CA 02D1                  bne return_error
  478                           
  479                           return_pass
  480    000003CC 4FF00100              mov r0, #1
  481    000003D0 7047                  bx lr
  482                           
  483                           return_error
  484    000003D2 4FF00000              mov r0, #0
  485    000003D6 7047                  bx lr
  486                           
  486.1                                  TABLE
  486.2  000003D8 ........              Reference on line 207
  486.3  000003DC ........              Reference on line 389
  486.4  000003E0 04ED00E0              Reference on line 396
  487                                   END
##############################
#           CRC:0            #
#        Errors:   0         #
#        Warnings: 0         #
#         Bytes: 996         #
##############################



